{"failedCount":0,"prefixedPath":"src\/test\/java\/test\/Postwithoutline.feature","packageQualifiedName":"src.test.java.test.Postwithoutline","loopIndex":-1,"relativePath":"src\/test\/java\/test\/Postwithoutline.feature","scenarioResults":[{"sectionIndex":0,"stepResults":[{"result":{"nanos":69361400,"millis":69.3614,"status":"passed"},"step":{"background":true,"line":4,"prefix":"*","index":0,"text":"url 'https:\/\/reqres.in\/api'"}},{"result":{"nanos":7081100,"millis":7.0811,"status":"passed"},"step":{"background":true,"line":5,"prefix":"*","index":1,"text":"headers Accept = 'application\/json'"},"stepLog":"23:30:42.626 did not evaluate to map Accept = 'application\/json': [type: STRING, value: application\/json]\n"},{"result":{"nanos":106781400,"millis":106.7814,"status":"passed"},"step":{"background":true,"line":6,"prefix":"*","index":2,"text":"def responseOutput = read('response1.json')"}},{"result":{"nanos":801600,"millis":0.8016,"status":"passed"},"step":{"line":10,"prefix":"Given","index":0,"text":"path '\/users'"}},{"result":{"nanos":2791400,"millis":2.7914,"status":"passed"},"step":{"line":11,"prefix":"And","index":1,"text":"def requestInput = read('classpath:Testdata\/request1.json')"}},{"result":{"nanos":22108900,"millis":22.1089,"status":"passed"},"step":{"line":12,"prefix":"And","index":2,"text":"set requestInput.name = 'tigerlily'"}},{"result":{"nanos":2797300,"millis":2.7973,"status":"passed"},"step":{"line":13,"prefix":"And","index":3,"text":"set requestInput.job = 'leader'"}},{"result":{"nanos":507100,"millis":0.5071,"status":"passed"},"step":{"line":14,"prefix":"And","index":4,"text":"request requestInput"}},{"result":{"nanos":1179395500,"millis":1179.3955,"status":"passed"},"step":{"line":15,"prefix":"When","index":5,"text":"method post"},"stepLog":"23:30:43.157 request:\n1 > POST https:\/\/reqres.in\/api\/users\n1 > Content-Type: application\/json; charset=UTF-8\n1 > Content-Length: 35\n1 > Host: reqres.in\n1 > Connection: Keep-Alive\n1 > User-Agent: Apache-HttpClient\/4.5.14 (Java\/18.0.2.1)\n1 > Accept-Encoding: gzip,deflate\n{\"name\":\"tigerlily\",\"job\":\"leader\"}\n\n23:30:43.939 response time in milliseconds: 772\n1 < 201\n1 < Date: Wed, 06 Sep 2023 18:00:41 GMT\n1 < Content-Type: application\/json; charset=utf-8\n1 < Content-Length: 85\n1 < Connection: keep-alive\n1 < X-Powered-By: Express\n1 < Access-Control-Allow-Origin: *\n1 < Etag: W\/\"55-gZ1DOdMj\/FtuEskuYrfNtF5KA2o\"\n1 < Via: 1.1 vegur\n1 < CF-Cache-Status: DYNAMIC\n1 < Report-To: {\"endpoints\":[{\"url\":\"https:\\\/\\\/a.nel.cloudflare.com\\\/report\\\/v3?s=KgrLcRSUh%2Fp2bWlddT0wW38dtt%2Flv5lf5wYouHSeI3He2USblACxgeXrNmEBelDKaMxiMRebiTFfF%2FpAJPBWxRZ19YZJ5SrTGzzO9lDn13qLVMgsHohte4oqVg%3D%3D\"}],\"group\":\"cf-nel\",\"max_age\":604800}\n1 < NEL: {\"success_fraction\":0,\"report_to\":\"cf-nel\",\"max_age\":604800}\n1 < Server: cloudflare\n1 < CF-RAY: 80289ce97ef74463-BOM\n{\"name\":\"tigerlily\",\"job\":\"leader\",\"id\":\"202\",\"createdAt\":\"2023-09-06T18:00:41.396Z\"}\n\n"},{"result":{"nanos":6724900,"millis":6.7249,"status":"passed"},"step":{"line":16,"prefix":"Then","index":6,"text":"status 201"}},{"result":{"nanos":33844400,"millis":33.8444,"status":"passed"},"step":{"line":17,"prefix":"And","index":7,"text":"print response"},"stepLog":"23:30:43.984 [print] {\n  \"name\": \"tigerlily\",\n  \"job\": \"leader\",\n  \"id\": \"202\",\n  \"createdAt\": \"2023-09-06T18:00:41.396Z\"\n}\n \n"},{"result":{"nanos":11593500,"millis":11.5935,"status":"passed"},"step":{"line":18,"prefix":"And","index":8,"text":"def responseOutput2 = read('response2.json')"}},{"result":{"nanos":7309100,"millis":7.3091,"status":"passed"},"step":{"line":19,"prefix":"And","index":9,"text":"set responseOutput2.name = 'tigerlily'"}},{"result":{"nanos":9039300,"millis":9.0393,"status":"passed"},"step":{"line":20,"prefix":"And","index":10,"text":"set responseOutput2.job = 'leader'"}},{"result":{"nanos":7414700,"millis":7.4147,"status":"passed"},"step":{"line":21,"prefix":"And","index":11,"text":"print responseOutput2"},"stepLog":"23:30:44.025 [print] {\n  \"name\": \"tigerlily\",\n  \"job\": \"leader\",\n  \"id\": \"#string\",\n  \"createdAt\": \"#ignore\"\n}\n \n"},{"result":{"nanos":33798000,"millis":33.798,"status":"passed"},"step":{"line":22,"prefix":"And","index":12,"text":"match response == responseOutput2"}},{"result":{"nanos":812000,"millis":0.812,"status":"passed"},"step":{"line":24,"prefix":"Given","index":13,"text":"path '\/users?page=2'"}},{"result":{"nanos":223328500,"millis":223.3285,"status":"passed"},"step":{"line":25,"prefix":"When","index":14,"text":"method GET"},"stepLog":"23:30:44.063 request:\n2 > GET https:\/\/reqres.in\/api\/users%3Fpage=2\n2 > Host: reqres.in\n2 > Connection: Keep-Alive\n2 > User-Agent: Apache-HttpClient\/4.5.14 (Java\/18.0.2.1)\n2 > Accept-Encoding: gzip,deflate\n\n\n23:30:44.282 response time in milliseconds: 216\n2 < 200\n2 < Date: Wed, 06 Sep 2023 18:00:41 GMT\n2 < Content-Type: application\/json; charset=utf-8\n2 < Transfer-Encoding: chunked\n2 < Connection: keep-alive\n2 < X-Powered-By: Express\n2 < Access-Control-Allow-Origin: *\n2 < Etag: W\/\"2c1-N6Rqerxquq2kgQhL51EiSg4x0R8\"\n2 < Via: 1.1 vegur\n2 < Cache-Control: max-age=14400\n2 < CF-Cache-Status: HIT\n2 < Age: 821\n2 < Report-To: {\"endpoints\":[{\"url\":\"https:\\\/\\\/a.nel.cloudflare.com\\\/report\\\/v3?s=3VXa128GyaQRL4x5afro0FdjvGiwJzLhFZEUG9gnoqTRqZ4mIIEPR6VjSJjbElP7fQkcoBSnFYNNOfnyqMEqps2VvNr95hFnR06rLkEL7KLteRnPSy9u7jg6oQ%3D%3D\"}],\"group\":\"cf-nel\",\"max_age\":604800}\n2 < NEL: {\"success_fraction\":0,\"report_to\":\"cf-nel\",\"max_age\":604800}\n2 < Vary: Accept-Encoding\n2 < Server: cloudflare\n2 < CF-RAY: 80289ced8fda4461-BOM\n{\"page\":1,\"per_page\":6,\"total\":12,\"total_pages\":2,\"data\":[{\"id\":1,\"name\":\"cerulean\",\"year\":2000,\"color\":\"#98B2D1\",\"pantone_value\":\"15-4020\"},{\"id\":2,\"name\":\"fuchsia rose\",\"year\":2001,\"color\":\"#C74375\",\"pantone_value\":\"17-2031\"},{\"id\":3,\"name\":\"true red\",\"year\":2002,\"color\":\"#BF1932\",\"pantone_value\":\"19-1664\"},{\"id\":4,\"name\":\"aqua sky\",\"year\":2003,\"color\":\"#7BC4C4\",\"pantone_value\":\"14-4811\"},{\"id\":5,\"name\":\"tigerlily\",\"year\":2004,\"color\":\"#E2583E\",\"pantone_value\":\"17-1456\"},{\"id\":6,\"name\":\"blue turquoise\",\"year\":2005,\"color\":\"#53B0AE\",\"pantone_value\":\"15-5217\"}],\"support\":{\"url\":\"https:\/\/reqres.in\/#support-heading\",\"text\":\"To keep ReqRes free, contributions towards server costs are appreciated!\"}}\n\n"},{"result":{"nanos":24600,"millis":0.0246,"status":"passed"},"step":{"line":26,"prefix":"Then","index":15,"text":"status 200"}},{"result":{"nanos":64594600,"millis":64.5946,"status":"passed"},"step":{"line":27,"prefix":"And","index":16,"text":"def available_name = karate.jsonPath(response,\"$..['name']\")"}},{"result":{"nanos":1988200,"millis":1.9882,"status":"passed"},"step":{"line":28,"prefix":"And","index":17,"text":"print available_name"},"stepLog":"23:30:44.350 [print] [\n  \"cerulean\",\n  \"fuchsia rose\",\n  \"true red\",\n  \"aqua sky\",\n  \"tigerlily\",\n  \"blue turquoise\"\n]\n \n"},{"result":{"nanos":5038000,"millis":5.038,"status":"passed"},"step":{"line":29,"prefix":"And","index":18,"text":"match available_name contains any 'tigerlily'"}}],"line":34,"description":"","durationMillis":1797.1355,"failed":false,"executorName":"main","name":"Validate Post API with Different user dynamically","startTime":1694023242535,"refId":"[1.1:34]","endTime":1694023244356,"exampleData":{"name":"tigerlily","job":"leader"},"exampleIndex":0},{"sectionIndex":0,"stepResults":[{"result":{"nanos":528100,"millis":0.5281,"status":"passed"},"step":{"background":true,"line":4,"prefix":"*","index":0,"text":"url 'https:\/\/reqres.in\/api'"}},{"result":{"nanos":1016900,"millis":1.0169,"status":"passed"},"step":{"background":true,"line":5,"prefix":"*","index":1,"text":"headers Accept = 'application\/json'"},"stepLog":"23:30:44.373 did not evaluate to map Accept = 'application\/json': [type: STRING, value: application\/json]\n"},{"result":{"nanos":2783600,"millis":2.7836,"status":"passed"},"step":{"background":true,"line":6,"prefix":"*","index":2,"text":"def responseOutput = read('response1.json')"}},{"result":{"nanos":295000,"millis":0.295,"status":"passed"},"step":{"line":10,"prefix":"Given","index":0,"text":"path '\/users'"}},{"result":{"nanos":2222400,"millis":2.2224,"status":"passed"},"step":{"line":11,"prefix":"And","index":1,"text":"def requestInput = read('classpath:Testdata\/request1.json')"}},{"result":{"nanos":2256500,"millis":2.2565,"status":"passed"},"step":{"line":12,"prefix":"And","index":2,"text":"set requestInput.name = 'true red'"}},{"result":{"nanos":2176300,"millis":2.1763,"status":"passed"},"step":{"line":13,"prefix":"And","index":3,"text":"set requestInput.job = 'worker'"}},{"result":{"nanos":295200,"millis":0.2952,"status":"passed"},"step":{"line":14,"prefix":"And","index":4,"text":"request requestInput"}},{"result":{"nanos":490329400,"millis":490.3294,"status":"passed"},"step":{"line":15,"prefix":"When","index":5,"text":"method post"},"stepLog":"23:30:44.388 request:\n1 > POST https:\/\/reqres.in\/api\/users\n1 > Content-Type: application\/json; charset=UTF-8\n1 > Content-Length: 34\n1 > Host: reqres.in\n1 > Connection: Keep-Alive\n1 > User-Agent: Apache-HttpClient\/4.5.14 (Java\/18.0.2.1)\n1 > Accept-Encoding: gzip,deflate\n{\"name\":\"true red\",\"job\":\"worker\"}\n\n23:30:44.873 response time in milliseconds: 482\n1 < 201\n1 < Date: Wed, 06 Sep 2023 18:00:42 GMT\n1 < Content-Type: application\/json; charset=utf-8\n1 < Content-Length: 84\n1 < Connection: keep-alive\n1 < X-Powered-By: Express\n1 < Access-Control-Allow-Origin: *\n1 < Etag: W\/\"54-6SmihM6bdOOKbAV5Evpkvoh1g98\"\n1 < Via: 1.1 vegur\n1 < CF-Cache-Status: DYNAMIC\n1 < Report-To: {\"endpoints\":[{\"url\":\"https:\\\/\\\/a.nel.cloudflare.com\\\/report\\\/v3?s=uwDIL0fF6JrXwXDeR74FGE%2B6IeZtkcBpeoZqt4UqE9dGKPSZC8IqJkuZbwB6k8Yni3gxRU1K%2BQVkG4VIXIp%2BgM%2Bla%2BDzns1cnTKr1XjeeSx80E66Zt3PeSd0vg%3D%3D\"}],\"group\":\"cf-nel\",\"max_age\":604800}\n1 < NEL: {\"success_fraction\":0,\"report_to\":\"cf-nel\",\"max_age\":604800}\n1 < Server: cloudflare\n1 < CF-RAY: 80289cef9c33492e-BOM\n{\"name\":\"true red\",\"job\":\"worker\",\"id\":\"699\",\"createdAt\":\"2023-09-06T18:00:42.374Z\"}\n\n"},{"result":{"nanos":37600,"millis":0.0376,"status":"passed"},"step":{"line":16,"prefix":"Then","index":6,"text":"status 201"}},{"result":{"nanos":1337800,"millis":1.3378,"status":"passed"},"step":{"line":17,"prefix":"And","index":7,"text":"print response"},"stepLog":"23:30:44.877 [print] {\n  \"name\": \"true red\",\n  \"job\": \"worker\",\n  \"id\": \"699\",\n  \"createdAt\": \"2023-09-06T18:00:42.374Z\"\n}\n \n"},{"result":{"nanos":2137600,"millis":2.1376,"status":"passed"},"step":{"line":18,"prefix":"And","index":8,"text":"def responseOutput2 = read('response2.json')"}},{"result":{"nanos":1699800,"millis":1.6998,"status":"passed"},"step":{"line":19,"prefix":"And","index":9,"text":"set responseOutput2.name = 'true red'"}},{"result":{"nanos":1642900,"millis":1.6429,"status":"passed"},"step":{"line":20,"prefix":"And","index":10,"text":"set responseOutput2.job = 'worker'"}},{"result":{"nanos":1003700,"millis":1.0037,"status":"passed"},"step":{"line":21,"prefix":"And","index":11,"text":"print responseOutput2"},"stepLog":"23:30:44.885 [print] {\n  \"name\": \"true red\",\n  \"job\": \"worker\",\n  \"id\": \"#string\",\n  \"createdAt\": \"#ignore\"\n}\n \n"},{"result":{"nanos":1087400,"millis":1.0874,"status":"passed"},"step":{"line":22,"prefix":"And","index":12,"text":"match response == responseOutput2"}},{"result":{"nanos":347900,"millis":0.3479,"status":"passed"},"step":{"line":24,"prefix":"Given","index":13,"text":"path '\/users?page=2'"}},{"result":{"nanos":204809200,"millis":204.8092,"status":"passed"},"step":{"line":25,"prefix":"When","index":14,"text":"method GET"},"stepLog":"23:30:44.891 request:\n2 > GET https:\/\/reqres.in\/api\/users%3Fpage=2\n2 > Host: reqres.in\n2 > Connection: Keep-Alive\n2 > User-Agent: Apache-HttpClient\/4.5.14 (Java\/18.0.2.1)\n2 > Accept-Encoding: gzip,deflate\n\n\n23:30:45.091 response time in milliseconds: 197\n2 < 200\n2 < Date: Wed, 06 Sep 2023 18:00:42 GMT\n2 < Content-Type: application\/json; charset=utf-8\n2 < Transfer-Encoding: chunked\n2 < Connection: keep-alive\n2 < X-Powered-By: Express\n2 < Access-Control-Allow-Origin: *\n2 < Etag: W\/\"2c1-N6Rqerxquq2kgQhL51EiSg4x0R8\"\n2 < Via: 1.1 vegur\n2 < Cache-Control: max-age=14400\n2 < CF-Cache-Status: HIT\n2 < Age: 822\n2 < Report-To: {\"endpoints\":[{\"url\":\"https:\\\/\\\/a.nel.cloudflare.com\\\/report\\\/v3?s=uBysZnVjlW8hQYfMcqiYWCf6UKBacto4TUAe4Rvrrzy4jmF%2B3YHzRAo%2BhV18IeqBGKWsoivRy%2FWnNhFQ58srf7AGMncPsKBzbLD7sq412jEfM8AR5YXs4HVfdg%3D%3D\"}],\"group\":\"cf-nel\",\"max_age\":604800}\n2 < NEL: {\"success_fraction\":0,\"report_to\":\"cf-nel\",\"max_age\":604800}\n2 < Vary: Accept-Encoding\n2 < Server: cloudflare\n2 < CF-RAY: 80289cf29be64664-BOM\n{\"page\":1,\"per_page\":6,\"total\":12,\"total_pages\":2,\"data\":[{\"id\":1,\"name\":\"cerulean\",\"year\":2000,\"color\":\"#98B2D1\",\"pantone_value\":\"15-4020\"},{\"id\":2,\"name\":\"fuchsia rose\",\"year\":2001,\"color\":\"#C74375\",\"pantone_value\":\"17-2031\"},{\"id\":3,\"name\":\"true red\",\"year\":2002,\"color\":\"#BF1932\",\"pantone_value\":\"19-1664\"},{\"id\":4,\"name\":\"aqua sky\",\"year\":2003,\"color\":\"#7BC4C4\",\"pantone_value\":\"14-4811\"},{\"id\":5,\"name\":\"tigerlily\",\"year\":2004,\"color\":\"#E2583E\",\"pantone_value\":\"17-1456\"},{\"id\":6,\"name\":\"blue turquoise\",\"year\":2005,\"color\":\"#53B0AE\",\"pantone_value\":\"15-5217\"}],\"support\":{\"url\":\"https:\/\/reqres.in\/#support-heading\",\"text\":\"To keep ReqRes free, contributions towards server costs are appreciated!\"}}\n\n"},{"result":{"nanos":30600,"millis":0.0306,"status":"passed"},"step":{"line":26,"prefix":"Then","index":15,"text":"status 200"}},{"result":{"nanos":5895600,"millis":5.8956,"status":"passed"},"step":{"line":27,"prefix":"And","index":16,"text":"def available_name = karate.jsonPath(response,\"$..['name']\")"}},{"result":{"nanos":952000,"millis":0.952,"status":"passed"},"step":{"line":28,"prefix":"And","index":17,"text":"print available_name"},"stepLog":"23:30:45.099 [print] [\n  \"cerulean\",\n  \"fuchsia rose\",\n  \"true red\",\n  \"aqua sky\",\n  \"tigerlily\",\n  \"blue turquoise\"\n]\n \n"},{"result":{"nanos":826800,"millis":0.8268,"status":"passed"},"step":{"line":29,"prefix":"And","index":18,"text":"match available_name contains any 'true red'"}}],"line":35,"description":"","durationMillis":723.7123,"failed":false,"executorName":"main","name":"Validate Post API with Different user dynamically","startTime":1694023244371,"refId":"[1.2:35]","endTime":1694023245100,"exampleData":{"name":"true red","job":"worker"},"exampleIndex":1}],"callDepth":0,"name":"Post API with scenario outline","description":"","resultDate":"2023-09-06 11:30:45 pm","durationMillis":2520.8478,"passedCount":2}